G04 #@! TF.GenerationSoftware,KiCad,Pcbnew,(5.0.2)-1*
G04 #@! TF.CreationDate,2019-02-04T12:22:06+01:00*
G04 #@! TF.ProjectId,JumperLayout,4a756d70-6572-44c6-9179-6f75742e6b69,rev?*
G04 #@! TF.SameCoordinates,Original*
G04 #@! TF.FileFunction,Profile,NP*
%FSLAX46Y46*%
G04 Gerber Fmt 4.6, Leading zero omitted, Abs format (unit mm)*
G04 Created by KiCad (PCBNEW (5.0.2)-1) date 04.02.2019 12:22:06*
%MOMM*%
%LPD*%
G01*
G04 APERTURE LIST*
%ADD10C,0.160000*%
G04 APERTURE END LIST*
D10*
X106700000Y-154000000D02*
X106700000Y-92900000D01*
X207800000Y-154000000D02*
X106700000Y-154000000D01*
X207800000Y-153900000D02*
X207800000Y-154000000D01*
X207800000Y-154000000D02*
X207800000Y-153900000D01*
X207800000Y-92900000D02*
X207800000Y-154000000D01*
X106700000Y-92900000D02*
X207800000Y-92900000D01*
M02*
