(module KicadLogo (layer F.Cu) (tedit 5C384EA4)
  (fp_text reference L1 (at 0 0) (layer F.SilkS) hide
    (effects (font (size 1.524 1.524) (thickness 0.3)))
  )
  (fp_text value Logo (at 0.75 0) (layer F.SilkS) hide
    (effects (font (size 1.524 1.524) (thickness 0.3)))
  )
  (fp_poly (pts (xy 2.029253 -0.234143) (xy 2.037234 -0.215586) (xy 2.043753 -0.176523) (xy 2.048951 -0.112484)
    (xy 2.052967 -0.018997) (xy 2.055942 0.108409) (xy 2.058015 0.274206) (xy 2.059326 0.482865)
    (xy 2.060015 0.738857) (xy 2.060222 1.046654) (xy 2.060222 2.370667) (xy -2.060222 2.370667)
    (xy -2.060222 -0.112889) (xy -1.961445 -0.112889) (xy -1.891617 -0.122063) (xy -1.856877 -0.145341)
    (xy -1.856072 -0.148166) (xy -1.854351 -0.128534) (xy -1.852118 -0.05803) (xy -1.849475 0.057775)
    (xy -1.846523 0.21331) (xy -1.843363 0.403005) (xy -1.840098 0.621291) (xy -1.836827 0.862597)
    (xy -1.834905 1.016) (xy -1.820334 2.215445) (xy -0.007056 2.221899) (xy 1.806222 2.228354)
    (xy 1.806391 1.262344) (xy 1.806963 1.022362) (xy 1.808508 0.790096) (xy 1.810894 0.574223)
    (xy 1.81399 0.383421) (xy 1.817664 0.226368) (xy 1.821786 0.111742) (xy 1.824488 0.06606)
    (xy 1.832926 -0.042333) (xy 1.919111 -0.042333) (xy 1.933222 -0.028222) (xy 1.947333 -0.042333)
    (xy 1.933222 -0.056444) (xy 1.919111 -0.042333) (xy 1.832926 -0.042333) (xy 1.842415 -0.164214)
    (xy 1.925729 -0.15367) (xy 1.983634 -0.152815) (xy 1.996626 -0.173674) (xy 1.994081 -0.182116)
    (xy 2.002132 -0.22447) (xy 2.019671 -0.236667) (xy 2.029253 -0.234143)) (layer F.SilkS) (width 0.01))
  (fp_poly (pts (xy 1.181896 1.016457) (xy 1.340161 1.018111) (xy 1.454936 1.021388) (xy 1.532694 1.026715)
    (xy 1.57991 1.034516) (xy 1.603059 1.045217) (xy 1.608666 1.057761) (xy 1.601202 1.072079)
    (xy 1.574358 1.0831) (xy 1.521459 1.091388) (xy 1.435828 1.097505) (xy 1.310789 1.102014)
    (xy 1.139667 1.10548) (xy 1.023055 1.10715) (xy 0.437444 1.114778) (xy 0.42952 1.4605)
    (xy 0.424947 1.609343) (xy 0.418492 1.710026) (xy 0.408974 1.770832) (xy 0.395208 1.80004)
    (xy 0.380131 1.806222) (xy 0.363357 1.797752) (xy 0.351668 1.767021) (xy 0.344225 1.706049)
    (xy 0.340191 1.606858) (xy 0.338729 1.461469) (xy 0.338666 1.411111) (xy 0.338666 1.016)
    (xy 0.973666 1.016) (xy 1.181896 1.016457)) (layer F.SilkS) (width 0.01))
  (fp_poly (pts (xy 1.499849 1.595977) (xy 1.546036 1.605295) (xy 1.563567 1.630085) (xy 1.566333 1.677928)
    (xy 1.566333 1.679222) (xy 1.563648 1.72676) (xy 1.546603 1.752917) (xy 1.50171 1.76535)
    (xy 1.415482 1.771713) (xy 1.402158 1.77241) (xy 1.237983 1.78093) (xy 1.246936 1.687743)
    (xy 1.25441 1.634471) (xy 1.273409 1.606744) (xy 1.31863 1.59622) (xy 1.404773 1.594556)
    (xy 1.411111 1.594556) (xy 1.499849 1.595977)) (layer F.SilkS) (width 0.01))
  (fp_poly (pts (xy -0.366889 -1.157111) (xy -0.197556 -1.157111) (xy -0.197556 -0.254) (xy -0.296334 -0.254)
    (xy -0.357027 -0.251289) (xy -0.385767 -0.232914) (xy -0.394502 -0.183515) (xy -0.395111 -0.127)
    (xy -0.395111 0) (xy 0.47637 0) (xy 0.478705 -0.028222) (xy 0.677333 -0.028222)
    (xy 0.677333 0.171182) (xy 0.991823 0.163202) (xy 1.134975 0.158119) (xy 1.231639 0.150421)
    (xy 1.291763 0.138519) (xy 1.325295 0.120822) (xy 1.335909 0.108199) (xy 1.348761 0.052632)
    (xy 1.328407 0.016477) (xy 1.299978 -0.004195) (xy 1.248987 -0.017629) (xy 1.165309 -0.025143)
    (xy 1.038822 -0.028049) (xy 0.984322 -0.028222) (xy 0.677333 -0.028222) (xy 0.478705 -0.028222)
    (xy 0.485129 -0.105833) (xy 0.493889 -0.211666) (xy 0.915539 -0.219507) (xy 1.33719 -0.227348)
    (xy 1.487037 -0.079363) (xy 1.636883 0.068622) (xy 1.503891 0.203645) (xy 1.370899 0.338667)
    (xy 0.479778 0.338667) (xy 0.479778 0.169334) (xy -0.395111 0.169334) (xy -0.395111 0.262917)
    (xy -0.403936 0.322698) (xy -0.43555 0.386044) (xy -0.497661 0.465973) (xy -0.549692 0.523972)
    (xy -0.621609 0.603494) (xy -0.67588 0.66656) (xy -0.7033 0.702373) (xy -0.704914 0.706075)
    (xy -0.687504 0.732256) (xy -0.640663 0.788915) (xy -0.573441 0.865236) (xy -0.551412 0.889519)
    (xy -0.397267 1.058334) (xy -0.396189 1.319389) (xy -0.395111 1.580445) (xy -0.296334 1.580445)
    (xy -0.229969 1.585164) (xy -0.202748 1.609104) (xy -0.197556 1.665111) (xy -0.197556 1.749778)
    (xy -0.705556 1.749778) (xy -0.705556 1.665111) (xy -0.698563 1.605142) (xy -0.665576 1.583038)
    (xy -0.620889 1.580445) (xy -0.536222 1.580445) (xy -0.536222 1.360203) (xy -0.537451 1.248192)
    (xy -0.544683 1.175608) (xy -0.563235 1.125438) (xy -0.598427 1.080671) (xy -0.635 1.044222)
    (xy -0.733778 0.948483) (xy -0.733778 1.052797) (xy -0.73788 1.121565) (xy -0.759245 1.150748)
    (xy -0.811461 1.157089) (xy -0.818445 1.157111) (xy -0.903111 1.157111) (xy -0.903111 0.762)
    (xy -1.580445 0.762) (xy -1.580445 0.592667) (xy -0.903111 0.592667) (xy -0.903111 0.197556)
    (xy -0.818445 0.197556) (xy -0.767174 0.200985) (xy -0.742365 0.221279) (xy -0.734429 0.273446)
    (xy -0.733778 0.330092) (xy -0.733778 0.462628) (xy -0.634027 0.365946) (xy -0.534276 0.269263)
    (xy -0.542305 0.014687) (xy -0.546655 -0.105753) (xy -0.55288 -0.180999) (xy -0.564627 -0.222275)
    (xy -0.585543 -0.240803) (xy -0.619275 -0.247806) (xy -0.627945 -0.248819) (xy -0.705556 -0.257749)
    (xy -0.705556 -0.987778) (xy -0.564445 -0.987778) (xy -0.564445 -0.423333) (xy -0.366889 -0.423333)
    (xy -0.366889 -0.987778) (xy -0.564445 -0.987778) (xy -0.705556 -0.987778) (xy -0.705556 -1.153362)
    (xy -0.550334 -1.171222) (xy -0.542435 -1.531055) (xy -0.534536 -1.890889) (xy -0.366889 -1.890889)
    (xy -0.366889 -1.157111)) (layer F.SilkS) (width 0.01))
  (fp_poly (pts (xy 0.790056 1.609904) (xy 0.844982 1.616885) (xy 0.868973 1.634515) (xy 0.874783 1.667699)
    (xy 0.874889 1.679222) (xy 0.871672 1.71715) (xy 0.85352 1.738275) (xy 0.807682 1.747503)
    (xy 0.721405 1.749737) (xy 0.691444 1.749778) (xy 0.592832 1.748541) (xy 0.537907 1.741559)
    (xy 0.513915 1.723929) (xy 0.508106 1.690746) (xy 0.508 1.679222) (xy 0.511216 1.641295)
    (xy 0.529368 1.62017) (xy 0.575206 1.610942) (xy 0.661483 1.608708) (xy 0.691444 1.608667)
    (xy 0.790056 1.609904)) (layer F.SilkS) (width 0.01))
  (fp_poly (pts (xy 0.789303 1.215843) (xy 0.831083 1.227517) (xy 0.84533 1.255796) (xy 0.846666 1.284111)
    (xy 0.842091 1.325985) (xy 0.818743 1.346875) (xy 0.762186 1.353998) (xy 0.705555 1.354667)
    (xy 0.621807 1.352379) (xy 0.580027 1.340705) (xy 0.565781 1.312427) (xy 0.564444 1.284111)
    (xy 0.569019 1.242237) (xy 0.592368 1.221347) (xy 0.648924 1.214224) (xy 0.705555 1.213556)
    (xy 0.789303 1.215843)) (layer F.SilkS) (width 0.01))
  (fp_poly (pts (xy 1.428974 1.242828) (xy 1.500221 1.247711) (xy 1.537111 1.259022) (xy 1.550679 1.279359)
    (xy 1.552222 1.298222) (xy 1.547758 1.325667) (xy 1.527007 1.342431) (xy 1.478934 1.351111)
    (xy 1.392501 1.354304) (xy 1.312333 1.354667) (xy 1.195692 1.353616) (xy 1.124445 1.348734)
    (xy 1.087556 1.337423) (xy 1.073987 1.317085) (xy 1.072444 1.298222) (xy 1.076908 1.270777)
    (xy 1.097659 1.254013) (xy 1.145732 1.245334) (xy 1.232165 1.242141) (xy 1.312333 1.241778)
    (xy 1.428974 1.242828)) (layer F.SilkS) (width 0.01))
  (fp_poly (pts (xy 1.937926 -0.21637) (xy 1.934052 -0.199592) (xy 1.919111 -0.197555) (xy 1.895881 -0.207881)
    (xy 1.900296 -0.21637) (xy 1.933789 -0.219748) (xy 1.937926 -0.21637)) (layer F.SilkS) (width 0.01))
  (fp_line (start -2.0574 -0.1016) (end -2.0574 2.3114) (layer F.CrtYd) (width 0.16))
  (fp_line (start -2.0574 2.3114) (end 2.0828 2.3368) (layer F.CrtYd) (width 0.16))
  (fp_line (start 2.0828 2.3368) (end 2.0828 -0.2286) (layer F.CrtYd) (width 0.16))
  (fp_line (start 2.0828 -0.2286) (end -0.4572 -1.8796) (layer F.CrtYd) (width 0.16))
  (fp_line (start -0.4572 -1.8796) (end -2.0574 -0.127) (layer F.CrtYd) (width 0.16))
)
